{
  "images" : [
    {
      "idiom" : "iphone",
      "filename" : "ImageRec.png",
      "scale" : "1x"
    },
    {
      "idiom" : "iphone",
      "filename" : "ImageRec@2x.png",
      "scale" : "2x"
    },
    {
      "idiom" : "iphone",
      "filename" : "ImageRec@3x.png",
      "scale" : "3x"
    },
    {
      "idiom" : "ipad",
      "scale" : "1x"
    },
    {
      "idiom" : "ipad",
      "scale" : "2x"
    },
    {
      "idiom" : "ios-marketing",
      "scale" : "1x"
    },
    {
      "idiom" : "iphone",
      "scale" : "2x",
      "unassigned" : true
    },
    {
      "idiom" : "iphone",
      "scale" : "2x",
      "unassigned" : true
    },
    {
      "idiom" : "iphone",
      "scale" : "2x",
      "unassigned" : true
    },
    {
      "idiom" : "iphone",
      "scale" : "3x",
      "unassigned" : true
    },
    {
      "idiom" : "iphone",
      "scale" : "3x",
      "unassigned" : true
    },
    {
      "idiom" : "iphone",
      "scale" : "3x",
      "unassigned" : true
    },
    {
      "idiom" : "ipad",
      "scale" : "1x",
      "unassigned" : true
    },
    {
      "idiom" : "ipad",
      "scale" : "1x",
      "unassigned" : true
    },
    {
      "idiom" : "ipad",
      "scale" : "1x",
      "unassigned" : true
    },
    {
      "idiom" : "ipad",
      "scale" : "2x",
      "unassigned" : true
    },
    {
      "idiom" : "ipad",
      "scale" : "2x",
      "unassigned" : true
    },
    {
      "idiom" : "ipad",
      "scale" : "2x",
      "unassigned" : true
    },
    {
      "idiom" : "ipad",
      "scale" : "2x",
      "unassigned" : true
    }
  ],
  "info" : {
    "version" : 1,
    "author" : "xcode"
  }
}